[gd_scene load_steps=5 format=2]

[ext_resource path="res://TextEdit.gd" type="Script" id=1]
[ext_resource path="res://Fonts/new_dynamicfont.tres" type="DynamicFont" id=2]
[ext_resource path="res://Fonts/new_styleboxflat.tres" type="StyleBox" id=3]
[ext_resource path="res://PopUpManual.tscn" type="PackedScene" id=4]

[node name="TextEdit" type="TextEdit"]
anchor_right = 1.0
anchor_bottom = 1.0
margin_left = -1.0
margin_top = -1.0
margin_right = 1.0
margin_bottom = 1.0
custom_styles/normal = ExtResource( 3 )
custom_fonts/font = ExtResource( 2 )
custom_colors/breakpoint_color = Color( 0.490196, 0.054902, 0.054902, 1 )
syntax_highlighting = true
show_line_numbers = true
breakpoint_gutter = true
highlight_all_occurrences = true
script = ExtResource( 1 )
__meta__ = {
"_edit_use_anchors_": false
}

[node name="SaveFileDialog" type="FileDialog" parent="."]
anchor_right = 1.0
anchor_bottom = 1.0
popup_exclusive = true
access = 1
show_hidden_files = true
current_dir = "user://C:/Users/Akseli/Documents/Git_repos/minted"
current_path = "user://C:/Users/Akseli/Documents/Git_repos/minted/"
__meta__ = {
"_edit_use_anchors_": false
}

[node name="OpenFileDialog" type="FileDialog" parent="."]
anchor_left = 0.5
anchor_top = 0.5
anchor_right = 0.5
anchor_bottom = 0.5
margin_left = -157.5
margin_top = -65.0
margin_right = 157.5
margin_bottom = 65.0
window_title = "Open a File"
mode = 0
access = 2
show_hidden_files = true
current_dir = "/Users/Akseli/Documents/Git_repos/minted"
current_path = "/Users/Akseli/Documents/Git_repos/minted/"
__meta__ = {
"_edit_use_anchors_": false
}

[node name="PopUpManual" parent="." instance=ExtResource( 4 )]
[connection signal="file_selected" from="SaveFileDialog" to="." method="_on_SaveFileDialog_file_selected"]
[connection signal="file_selected" from="OpenFileDialog" to="." method="_on_OpenFileDialog_file_selected"]
